…
    ## # A tibble: 10 x 3
    ##    variable n_miss pct_miss
    ##    <chr>     <int>    <dbl>
    ##  1 GENERAL     327     16.4
    ##  2 FWDAPLAG    327     16.4
    ##  3 ORIGINAL     48      2.4
    ##  4 BCKGTLAG     34      1.7
    ##  5 PATENT        0      0  
    ##  6 GYEAR         0      0  
    ##  7 CRECEIVE      0      0  
    ##  8 CAT           0      0  
    ##  9 CLAIMS        0      0  
    ## 10 CMADE         0      0

    ## # A tibble: 2,000 x 3
    ##     case n_miss pct_miss
    ##    <int>  <int>    <dbl>
    ##  1   346      4       40
    ##  2   516      4       40
    ##  3   590      4       40
    ##  4  1176      4       40
    ##  5  1224      4       40
    ##  6  1470      4       40
    ##  7  1664      4       40
    ##  8  1792      4       40
    ##  9  1111      3       30
    ## 10  1337      3       30
    ## # ... with 1,990 more rows
…
    ## # A tibble: 10 x 3
    ##    variable n_miss pct_miss
    ##    <chr>     <int>    <dbl>
    ##  1 PATENT        0        0
    ##  2 GYEAR         0        0
    ##  3 CRECEIVE      0        0
    ##  4 CAT           0        0
    ##  5 CLAIMS        0        0
    ##  6 CMADE         0        0
    ##  7 GENERAL       0        0
    ##  8 ORIGINAL      0        0
    ##  9 FWDAPLAG      0        0
    ## 10 BCKGTLAG      0        0

    ## # A tibble: 1,998 x 3
    ##     case n_miss pct_miss
    ##    <int>  <int>    <dbl>
    ##  1     1      0        0
    ##  2     2      0        0
    ##  3     3      0        0
    ##  4     4      0        0
    ##  5     5      0        0
    ##  6     6      0        0
    ##  7     7      0        0
    ##  8     8      0        0
    ##  9     9      0        0
    ## 10    10      0        0
    ## # ... with 1,988 more rows
…
    ## [1] Count Observations for Each Outcome of Each Nominal and Ordinal Variable

    ## # A tibble: 6 x 2
    ##   GYEAR `n()`
    ##   <int> <int>
    ## 1  1990   301
    ## 2  1991   339
    ## 3  1992   331
    ## 4  1993   332
    ## 5  1994   347
    ## 6  1995   348

    ## # A tibble: 48 x 2
    ##    CRECEIVE `n()`
    ##       <int> <int>
    ##  1        0   325
    ##  2        1   307
    ##  3        2   265
    ##  4        3   234
    ##  5        4   172
    ##  6        5   142
    ##  7        6    98
    ##  8        7    73
    ##  9        8    60
    ## 10        9    44
    ## # ... with 38 more rows
…
    ## # A tibble: 2 x 2
    ##   CAT05 `n()`
    ##   <dbl> <int>
    ## 1     0  1566
    ## 2     1   432

    ## # A tibble: 2 x 2
    ##   CAT06 `n()`
    ##   <dbl> <int>
    ## 1     0  1606
    ## 2     1   392

    ## # A tibble: 57 x 2
    ##    CLAIMS `n()`
    ##     <int> <int>
    ##  1      1    46
    ##  2      2    55
    ##  3      3   101
    ##  4      4   107
    ##  5      5   117
    ##  6      6   123
    ##  7      7   112
    ##  8      8   133
    ##  9      9   113
    ## 10     10   107
    ## # ... with 47 more rows

    ## # A tibble: 49 x 2
    ##    CMADE `n()`
    ##    <int> <int>
    ##  1     0    34
    ##  2     1   108
    ##  3     2   159
    ##  4     3   182
    ##  5     4   179
    ##  6     5   175
    ##  7     6   152
    ##  8     7   151
    ##  9     8   131
    ## 10     9   118
    ## # ... with 39 more rows
…
    ## [1] Count Observations for Each Outcome of Each Nominal and Ordinal Variable

    ## # A tibble: 6 x 2
    ##   GYEAR `n()`
    ##   <int> <int>
    ## 1  1990   301
    ## 2  1991   339
    ## 3  1992   331
    ## 4  1993   332
    ## 5  1994   347
    ## 6  1995   348

    ## # A tibble: 48 x 2
    ##    CRECEIVE `n()`
    ##       <int> <int>
    ##  1        0   325
    ##  2        1   307
    ##  3        2   265
    ##  4        3   234
    ##  5        4   172
    ##  6        5   142
    ##  7        6    98
    ##  8        7    73
    ##  9        8    60
    ## 10        9    44
    ## # ... with 38 more rows
…
    ## # A tibble: 2 x 2
    ##   CAT05 `n()`
    ##   <dbl> <int>
    ## 1     0  1566
    ## 2     1   432

    ## # A tibble: 2 x 2
    ##   CAT06 `n()`
    ##   <dbl> <int>
    ## 1     0  1606
    ## 2     1   392

    ## # A tibble: 57 x 2
    ##    CLAIMS `n()`
    ##     <int> <int>
    ##  1      1    46
    ##  2      2    55
    ##  3      3   101
    ##  4      4   107
    ##  5      5   117
    ##  6      6   123
    ##  7      7   112
    ##  8      8   133
    ##  9      9   113
    ## 10     10   107
    ## # ... with 47 more rows

    ## # A tibble: 49 x 2
    ##    CMADE `n()`
    ##    <int> <int>
    ##  1     0    34
    ##  2     1   108
    ##  3     2   159
    ##  4     3   182
    ##  5     4   179
    ##  6     5   175
    ##  7     6   152
    ##  8     7   151
    ##  9     8   131
    ## 10     9   118
    ## # ... with 39 more rows
…
